X_RANGE 5.32
Y_RANGE 5947496.00
ORDER OTHER 1
ORDER (9406)GHC.Conc.Signal.CAF 2
ORDER (19247)httpAcceptLoop.loop.prep/httpAcceptLoop.loop.go.\/httpAcceptLoop.loop.go/eatException/httpAcceptLoop.loop/wrapAction/forkIOLabeledWithUnmaskBs.\/forkIOLabeledWithUnmaskBs/rawHttpServe.runLoop/rawHttpServe.\/rawHttpServe/httpServe/startServer/forkServerWith/forkServer/main 3
ORDER (19294)throwSocketErrorIfMinus1RetryMayBlock/throwSocketErrorWaitRead.\/withFdSocket/recvBuf/socketToStreamsWithBufferSizeImpl.recv/socketToStreamsWithBufferSizeImpl.input/socketToStreamsWithBufferSizeImpl/socketToStreamsWithBufferSize/httpAcceptFunc.\.\/acceptAndInitialize/httpAcceptFunc.\/httpAcceptFunc/listeners.httpListener/listeners.\/listeners/runAcceptFunc/httpAcceptLoop.loop.go/eatException/httpAcceptLoop.loop/wrapAction/forkIOLabeledWithUnmaskBs.\/forkIOLabeledWithUnmaskBs/rawHttpServe.run... 4
ORDER (9319)GHC.Event.Thread.CAF 5
ORDER (19255)httpSession/httpAcceptLoop.session/httpAcceptLoop.loop.prep/httpAcceptLoop.loop.go.\/httpAcceptLoop.loop.go/eatException/httpAcceptLoop.loop/wrapAction/forkIOLabeledWithUnmaskBs.\/forkIOLabeledWithUnmaskBs/rawHttpServe.runLoop/rawHttpServe.\/rawHttpServe/httpServe/startServer/forkServerWith/forkServer/main 6
ORDER (18679)insert'.go/insert'/insert/insert/registerGroup.register_/registerGroup.\.state'/registerGroup.\/registerGroup/registerGcMetrics/forkServer/main 7
ORDER (22614)new_/unsafeInsert.go/unsafeInsert/fromList.\/fromList/defaultMimeTypes/CAF:defaultMimeTypes 8
ORDER (9386)GHC.IO.Encoding.CAF 9
ORDER (18612)unsafeInsert.go/unsafeInsert/fromList.\/fromList/registerGcMetrics/CAF:registerGcMetrics17 10
ORDER (19597)httpSession/processRequest/httpSession.loop/httpSession/httpAcceptLoop.session/httpAcceptLoop.loop.prep/httpAcceptLoop.loop.go.\/httpAcceptLoop.loop.go/eatException/httpAcceptLoop.loop/wrapAction/forkIOLabeledWithUnmaskBs.\/forkIOLabeledWithUnmaskBs/rawHttpServe.runLoop/rawHttpServe.\/rawHttpServe/httpServe/startServer/forkServerWith/forkServer/main 11
ORDER (22609)unsafeInsert.go/unsafeInsert/fromList.\/fromList/defaultMimeTypes/CAF:defaultMimeTypes 12
ORDER (22539)statusReasonMap/CAF:statusReasonMap 13
ORDER (18460)CAF:getDataDir4 14
ORDER (9299)SYSTEM 15
ORDER (18746)action/asyncUsing.\.\/asyncUsing.\/asyncUsing/async/mapConcurrently'.\/mapConcurrently'/main.\/main 16
ORDER (9295)PINNED 17
ORDER MAIN 18
ORDER (18743)asyncUsing.\.\/asyncUsing.\/asyncUsing/async/mapConcurrently'.\/mapConcurrently'/main.\/main 19
ORDER (18742)asyncUsing.\/asyncUsing/async/mapConcurrently'.\/mapConcurrently'/main.\/main 20
SHADE OTHER 0.00
SHADE (9406)GHC.Conc.Signal.CAF 0.00
SHADE (19247)httpAcceptLoop.loop.prep/httpAcceptLoop.loop.go.\/httpAcceptLoop.loop.go/eatException/httpAcceptLoop.loop/wrapAction/forkIOLabeledWithUnmaskBs.\/forkIOLabeledWithUnmaskBs/rawHttpServe.runLoop/rawHttpServe.\/rawHttpServe/httpServe/startServer/forkServerWith/forkServer/main 0.00
SHADE (19294)throwSocketErrorIfMinus1RetryMayBlock/throwSocketErrorWaitRead.\/withFdSocket/recvBuf/socketToStreamsWithBufferSizeImpl.recv/socketToStreamsWithBufferSizeImpl.input/socketToStreamsWithBufferSizeImpl/socketToStreamsWithBufferSize/httpAcceptFunc.\.\/acceptAndInitialize/httpAcceptFunc.\/httpAcceptFunc/listeners.httpListener/listeners.\/listeners/runAcceptFunc/httpAcceptLoop.loop.go/eatException/httpAcceptLoop.loop/wrapAction/forkIOLabeledWithUnmaskBs.\/forkIOLabeledWithUnmaskBs/rawHttpServe.run... 0.00
SHADE (9319)GHC.Event.Thread.CAF 0.10
SHADE (19255)httpSession/httpAcceptLoop.session/httpAcceptLoop.loop.prep/httpAcceptLoop.loop.go.\/httpAcceptLoop.loop.go/eatException/httpAcceptLoop.loop/wrapAction/forkIOLabeledWithUnmaskBs.\/forkIOLabeledWithUnmaskBs/rawHttpServe.runLoop/rawHttpServe.\/rawHttpServe/httpServe/startServer/forkServerWith/forkServer/main 0.10
SHADE (18679)insert'.go/insert'/insert/insert/registerGroup.register_/registerGroup.\.state'/registerGroup.\/registerGroup/registerGcMetrics/forkServer/main 0.10
SHADE (22614)new_/unsafeInsert.go/unsafeInsert/fromList.\/fromList/defaultMimeTypes/CAF:defaultMimeTypes 0.10
SHADE (9386)GHC.IO.Encoding.CAF 0.00
SHADE (18612)unsafeInsert.go/unsafeInsert/fromList.\/fromList/registerGcMetrics/CAF:registerGcMetrics17 0.00
SHADE (19597)httpSession/processRequest/httpSession.loop/httpSession/httpAcceptLoop.session/httpAcceptLoop.loop.prep/httpAcceptLoop.loop.go.\/httpAcceptLoop.loop.go/eatException/httpAcceptLoop.loop/wrapAction/forkIOLabeledWithUnmaskBs.\/forkIOLabeledWithUnmaskBs/rawHttpServe.runLoop/rawHttpServe.\/rawHttpServe/httpServe/startServer/forkServerWith/forkServer/main 0.00
SHADE (22609)unsafeInsert.go/unsafeInsert/fromList.\/fromList/defaultMimeTypes/CAF:defaultMimeTypes 0.00
SHADE (22539)statusReasonMap/CAF:statusReasonMap 0.05
SHADE (18460)CAF:getDataDir4 0.05
SHADE (9299)SYSTEM 0.05
SHADE (18746)action/asyncUsing.\.\/asyncUsing.\/asyncUsing/async/mapConcurrently'.\/mapConcurrently'/main.\/main 0.05
SHADE (9295)PINNED 0.10
SHADE MAIN 0.10
SHADE (18743)asyncUsing.\.\/asyncUsing.\/asyncUsing/async/mapConcurrently'.\/mapConcurrently'/main.\/main 0.10
SHADE (18742)asyncUsing.\/asyncUsing/async/mapConcurrently'.\/mapConcurrently'/main.\/main 0.10
